<?xml version="1.0" encoding="UTF-8" standalone="no"?>
<!DOCTYPE svg PUBLIC "-//W3C//DTD SVG 1.1//EN"
 "http://www.w3.org/Graphics/SVG/1.1/DTD/svg11.dtd">
<!-- Generated by graphviz version 12.1.2 (0)
 -->
<!-- Pages: 1 -->
<svg width="585pt" height="212pt"
 viewBox="0.00 0.00 585.25 212.25" xmlns="http://www.w3.org/2000/svg" xmlns:xlink="http://www.w3.org/1999/xlink">
<g id="graph0" class="graph" transform="scale(1 1) rotate(0) translate(4 208.25)">
<polygon fill="white" stroke="none" points="-4,4 -4,-208.25 581.25,-208.25 581.25,4 -4,4"/>
<g id="clust2" class="cluster">
<title>cluster_slaves</title>
<polygon fill="blue" stroke="black" points="91.25,-8 91.25,-86.25 569.25,-86.25 569.25,-8 91.25,-8"/>
<text text-anchor="middle" x="330.25" y="-68.95" font-family="Times,serif" font-size="14.00">Slaves</text>
</g>
<!-- boss -->
<g id="node1" class="node">
<title>boss</title>
<polygon fill="none" stroke="black" points="190,-167.75 190,-203.75 270.5,-203.75 270.5,-167.75 190,-167.75"/>
<text text-anchor="middle" x="230.25" y="-181.07" font-family="Times,serif" font-size="14.00">The Boss</text>
</g>
<!-- bitch -->
<g id="node2" class="node">
<title>bitch</title>
<polygon fill="green" stroke="black" points="0,-94.75 0,-130.75 182.5,-130.75 182.5,-94.75 0,-94.75"/>
<text text-anchor="middle" x="91.25" y="-108.08" font-family="Times,serif" font-size="14.00">The Bosses Cocksucker</text>
</g>
<!-- boss&#45;&#45;bitch -->
<g id="edge1" class="edge">
<title>boss&#45;&#45;bitch</title>
<path fill="none" stroke="black" d="M196.25,-167.38C174.71,-156.38 146.95,-142.2 125.38,-131.19"/>
</g>
<!-- minion1 -->
<g id="node3" class="node">
<title>minion1</title>
<polygon fill="#f22430" stroke="#000000" points="200.5,-94.75 200.5,-130.75 260,-130.75 260,-94.75 200.5,-94.75"/>
<text text-anchor="middle" x="230.25" y="-108.08" font-family="Times,serif" font-size="14.00" fill="#000000">Doer1</text>
</g>
<!-- boss&#45;&#45;minion1 -->
<g id="edge2" class="edge">
<title>boss&#45;&#45;minion1</title>
<path fill="none" stroke="black" d="M230.25,-167.56C230.25,-156.4 230.25,-141.91 230.25,-130.78"/>
</g>
<!-- minion_lead -->
<g id="node4" class="node">
<title>minion_lead</title>
<polygon fill="green" stroke="black" points="278,-94.75 278,-130.75 382.5,-130.75 382.5,-94.75 278,-94.75"/>
<text text-anchor="middle" x="330.25" y="-108.08" font-family="Times,serif" font-size="14.00">Slave leader</text>
</g>
<!-- boss&#45;&#45;minion_lead -->
<g id="edge3" class="edge">
<title>boss&#45;&#45;minion_lead</title>
<path fill="none" stroke="black" d="M254.71,-167.38C270.21,-156.38 290.18,-142.2 305.69,-131.19"/>
</g>
<!-- slave2 -->
<g id="node6" class="node">
<title>slave2</title>
<polygon fill="none" stroke="black" points="259.25,-16.5 259.25,-52.5 401.25,-52.5 401.25,-16.5 259.25,-16.5"/>
<text text-anchor="middle" x="330.25" y="-29.82" font-family="Times,serif" font-size="14.00">Unnamed Slave 2</text>
</g>
<!-- minion_lead&#45;&#45;slave2 -->
<g id="edge4" class="edge">
<title>minion_lead&#45;&#45;slave2</title>
<path fill="none" stroke="black" d="M330.25,-94.45C330.25,-91.87 330.25,-89.11 330.25,-86.25"/>
</g>
<!-- slave1 -->
<g id="node5" class="node">
<title>slave1</title>
<polygon fill="white" stroke="black" points="99.25,-16.5 99.25,-52.5 241.25,-52.5 241.25,-16.5 99.25,-16.5"/>
<text text-anchor="middle" x="170.25" y="-29.82" font-family="Times,serif" font-size="14.00">Unnamed Slave 1</text>
</g>
<!-- slave3 -->
<g id="node7" class="node">
<title>slave3</title>
<polygon fill="none" stroke="black" points="419.25,-16.5 419.25,-52.5 561.25,-52.5 561.25,-16.5 419.25,-16.5"/>
<text text-anchor="middle" x="490.25" y="-29.82" font-family="Times,serif" font-size="14.00">Unnamed Slave 3</text>
</g>
<!-- Slaves -->
<g id="node8" class="node">
<title>Slaves</title>
<polygon fill="none" stroke="black" points="288.5,-167.75 288.5,-203.75 536,-203.75 536,-167.75 288.5,-167.75"/>
<text text-anchor="middle" x="322" y="-181.07" font-family="Times,serif" font-size="14.00">Dude 1</text>
<polyline fill="none" stroke="black" points="355.5,-167.75 355.5,-203.75"/>
<text text-anchor="middle" x="392.75" y="-181.07" font-family="Times,serif" font-size="14.00">Kaline 2</text>
<polyline fill="none" stroke="black" points="430,-167.75 430,-203.75"/>
<text text-anchor="middle" x="483" y="-181.07" font-family="Times,serif" font-size="14.00">Theotherone</text>
</g>
</g>
</svg>
